{
  "docs": {
    "Intro": ["intro/introduction", "intro/installation", "intro/editor-support"],
    "Language Basics": [
      "language-basics/types",
      "language-basics/constants-and-variables",
      "language-basics/math-numbers-tez",
      "language-basics/strings",
      "language-basics/functions",
      "language-basics/boolean-if-else",
      "language-basics/loops",
      "language-basics/unit-option-pattern-matching",
      "language-basics/maps-records",
      "language-basics/sets-lists-tuples",
      "language-basics/tezos-specific"
    ],
    "Advanced": [
      "advanced/timestamps-addresses",
      "advanced/entrypoints-contracts",
      "advanced/include",
      "advanced/first-contract",
      "advanced/michelson-and-ligo",      
      "advanced/inline",
      "advanced/interop",
      "advanced/embedded-michelson"
    ],
    "Reference": [
      "api/cli-commands",
      "api/cheat-sheet"
    ],
    "API":[
      "reference/toplevel",
      "reference/big-map-reference",
      "reference/bitwise-reference",
      "reference/bytes-reference",
      "reference/crypto-reference",      
      "reference/list-reference",
      "reference/map-reference",
      "reference/set-reference",
      "reference/string-reference",
      "reference/current-reference"
    ]
  },
  "contributors-docs": {
    "Introduction": [
      "contributors/origin",
      "contributors/philosophy",
      "contributors/getting-started",
      "contributors/documentation-and-releases"
    ],
    "Big Picture": [
      "contributors/big-picture/overview",
      "contributors/big-picture/front-end",
      "contributors/big-picture/middle-end",
      "contributors/big-picture/back-end",
      "contributors/big-picture/vendors"
    ],
    "Road Map": [
      "contributors/road-map/short-term",
      "contributors/road-map/long-term"
    ]
  },
  "tutorials": {
    "Get Started": [
      "tutorials/get-started/tezos-taco-shop-smart-contract",
      "tutorials/get-started/tezos-taco-shop-payout"
    ]
  }
}
